pp->tt~ +X, X=0,1,or 2 jets   
       100  ! weighted events. Smallest probability is     0.9473
         3 !number of general comment lines to follow
CCCCCCCCCCCCCCCCCCCC Number of comment lines includes 2 CCCCC lines CCCCCCCCCC
 Cross section =   0.2087E+05+-   4.833     fb
CCCCCCCCCCCCCCCCCCCC Do not make changes after this line CCCCCCCCCCCCCCCCCCCCC
    2212    2212     7000.         7000.     ! beam ID and beam energies in GeV 
       4       4      32      32 ! PDF groups and sets for the two beams 
       1       1 ! weight method and #processes
     20.87        0.4833E-02     22.030697    303
    4  303
       1      12       6
   1    11   11    0    0    0
   1   -12   11    0    0    0
   1   -11   12    0    0    0
   1    12   12    0    0    0
   2   -24    3    0    0    0
   2    24    4    0    0    0
       2      12       6
   1    13   11    0    0    0
   1   -14   11    0    0    0
   1   -11   12    0    0    0
   1    12   12    0    0    0
   2   -24    3    0    0    0
   2    24    4    0    0    0
       3      12       6
   1    11   11    0    0    0
   1   -12   11    0    0    0
   1   -13   12    0    0    0
   1    14   12    0    0    0
   2   -24    3    0    0    0
   2    24    4    0    0    0
       4      12       6
   1    13   11    0    0    0
   1   -14   11    0    0    0
   1   -13   12    0    0    0
   1    14   12    0    0    0
   2   -24    3    0    0    0
   2    24    4    0    0    0
   12  303
       1      12       6
  -1     1    0    0  501    0
  -1    -1    0    0    0  502
   2     6    1    0  501    0
   2    -6    2    0    0  502
   1     5    3    0  501    0
   1    -5    4    0    0  502
       2      12       6
  -1     2    0    0  501    0
  -1    -2    0    0    0  502
   2     6    1    0  501    0
   2    -6    2    0    0  502
   1     5    3    0  501    0
   1    -5    4    0    0  502
       3      12       6
  -1     3    0    0  501    0
  -1    -3    0    0    0  502
   2     6    1    0  501    0
   2    -6    2    0    0  502
   1     5    3    0  501    0
   1    -5    4    0    0  502
       4      12       6
  -1     4    0    0  501    0
  -1    -4    0    0    0  502
   2     6    1    0  501    0
   2    -6    2    0    0  502
   1     5    3    0  501    0
   1    -5    4    0    0  502
       5      12       6
  -1     5    0    0  501    0
  -1    -5    0    0    0  502
   2     6    1    0  501    0
   2    -6    2    0    0  502
   1     5    3    0  501    0
   1    -5    4    0    0  502
       6      12       6
  -1    -1    0    0    0  501
  -1     1    0    0  502    0
   2    -6    1    0    0  501
   2     6    2    0  502    0
   1    -5    3    0    0  501
   1     5    4    0  502    0
       7      12       6
  -1    -2    0    0    0  501
  -1     2    0    0  502    0
   2    -6    1    0    0  501
   2     6    2    0  502    0
   1    -5    3    0    0  501
   1     5    4    0  502    0
       8      12       6
  -1    -3    0    0    0  501
  -1     3    0    0  502    0
   2    -6    1    0    0  501
   2     6    2    0  502    0
   1    -5    3    0    0  501
   1     5    4    0  502    0
       9      12       6
  -1    -4    0    0    0  501
  -1     4    0    0  502    0
   2    -6    1    0    0  501
   2     6    2    0  502    0
   1    -5    3    0    0  501
   1     5    4    0  502    0
      10      12       6
  -1    -5    0    0    0  501
  -1     5    0    0  502    0
   2    -6    1    0    0  501
   2     6    2    0  502    0
   1    -5    3    0    0  501
   1     5    4    0  502    0
      11      12       6
  -1    21    0    0  502  503
  -1    21    0    0  501  502
   2     6    1    0  501    0
   2    -6    2    0    0  503
   1     5    3    0  501    0
   1    -5    4    0    0  503
      12      12       6
  -1    21    0    0  501  502
  -1    21    0    0  502  503
   2     6    1    0  501    0
   2    -6    2    0    0  503
   1     5    3    0  501    0
   1    -5    4    0    0  503
      1    303     12     11      1  20.870510      202.03392     0.77579519E-02 0.11800000    
  1     27.141139             0.000      9.    21
  2    -1535.6794             0.000      9.    21
  5     23.195130        -24.885621        -51.387030            0.8587E-05  9.     5
  6     40.242028        -33.971289        -398.39814            0.6211E-05  9.    -5
  7     34.508940         61.407724        -398.15426            0.5110E-03 -1.    11
  8    -40.221175         64.133550        -417.12766             0.000      1.   -12
  9    -48.876006        -56.462013        -246.18359            0.5110E-03  1.   -11
 10    -8.8489171        -10.222351         2.7124063             0.000     -1.    12
      2    303     12     12      4  20.870510      233.38267     0.77579519E-02 0.11800000    
  1     284.88628             0.000      9.    21
  2    -602.88914             0.000      9.    21
  5    -11.366318         61.460264         138.16207            0.4503E-05  9.     5
  6    -10.652782        -120.60377        -239.84012            0.5190E-05  9.    -5
  7     98.797679         46.698444         84.516534            0.1057     -1.    13
  8     5.2295185         16.344060        -14.867423             0.000      1.   -14
  9    -71.804665        -3.4138878        -287.44115            0.1057      1.   -13
 10    -10.203433       -0.48511297         1.4672282             0.000     -1.    14
      3    303     12     12      2  20.870510      237.64093     0.77579519E-02 0.11800000    
  1     355.11585             0.000      9.    21
  2    -159.69599             0.000      9.    21
  5     142.42983       -0.46338685         87.880953            0.3811E-05  9.     5
  6    -77.087810        -62.301372        -16.609248            0.6651E-06  9.    -5
  7     39.065922         23.151353         42.606711            0.1057     -1.    13
  8    -24.876073         16.846792        -16.124661             0.000      1.   -14
  9    -22.874116         6.5478930        -11.577589            0.5110E-03  1.   -11
 10    -56.657751         16.218721         109.24369             0.000     -1.    12
      4    303     12     11      3  20.870510      344.91719     0.77579519E-02 0.11800000    
  1     390.97582             0.000      9.    21
  2    -517.35619             0.000      9.    21
  5    -10.653852         82.247783        -164.31740            0.5831E-05  9.     5
  6    -89.731651        -43.750270         100.38192            0.4192E-05  9.    -5
  7     142.45529         147.25359        -175.44067            0.5110E-03 -1.    11
  8    -1.4810111         38.087796        -14.894629             0.000      1.   -12
  9    -12.854455        -70.889718         2.0978834            0.1057      1.   -13
 10    -27.734323        -152.94918         125.79252             0.000     -1.    14
      5    303     12     12      2  20.870510      232.00967     0.77579519E-02 0.11800000    
  1     114.51865             0.000      9.    21
  2    -572.03934             0.000      9.    21
  5     42.300699        -40.427045         4.7930040            0.4452E-05  9.     5
  6     16.668774         145.35818        -201.99562            0.5935E-06  9.    -5
  7    -19.381363        -57.693489        -86.515677            0.1057     -1.    13
  8    -66.116778        -48.787518        -2.0836323             0.000      1.   -14
  9     21.749445         1.2706552        -179.77333            0.5110E-03  1.   -11
 10     4.7792226        0.27921374         8.0545643             0.000     -1.    12
      6    303     12     12      1  20.870510      235.29352     0.77579519E-02 0.11800000    
  1     1251.9262             0.000      9.    21
  2    -91.320673             0.000      9.    21
  5    -62.774460        -64.051556         681.68718            0.6937E-05  9.     5
  6     12.020716         96.793156        -1.3171505            0.2052E-05  9.    -5
  7     30.793021        -11.368035         74.291704            0.5110E-03 -1.    11
  8    -84.234584        -31.708306         306.65395             0.000      1.   -12
  9     28.587919         2.8355282        -4.1062254            0.5110E-03  1.   -11
 10     75.607387         7.4992127         103.39611             0.000     -1.    12
      7    303     12     11      2  20.870510      176.05639     0.77579519E-02 0.11800000    
  1     310.37636             0.000      9.    21
  2    -128.35903             0.000      9.    21
  5    -48.785999        -19.931519        -43.548786            0.1877E-05  9.     5
  6     53.424092         48.690347         65.154215            0.2070E-05  9.    -5
  7     65.612816        -2.7116547         52.560501            0.1057     -1.    13
  8    -10.873654        -1.4383646        -21.358529             0.000      1.   -14
  9    -14.017481        -5.8095227        -9.4229582            0.5110E-03  1.   -11
 10    -45.359773        -18.799285         138.63290             0.000     -1.    12
      8    303     12     12      2  20.870510      220.47698     0.77579519E-02 0.11800000    
  1     151.35856             0.000      9.    21
  2    -332.47311             0.000      9.    21
  5    -67.952385        -132.90261        -75.328255            0.1567E-05  9.     5
  6    -4.1304965         92.441174        -135.67460            0.2023E-05  9.    -5
  7     30.633575        0.45036666E-01     5.9889430            0.1057     -1.    13
  8     13.044951        0.40454345E-01     23.409741             0.000      1.   -14
  9     14.162410         20.131444        -39.984391            0.5110E-03  1.   -11
 10     14.241946         20.244502         40.474003             0.000     -1.    12
      9    303     12      2      3  20.870510      297.24255     0.77579519E-02 0.11800000    
  1     4338.1477             0.000      9.     2
  2    -20.543526             0.000      9.    -2
  5    -132.22654         150.84930         1371.3338            0.6162E-05  9.     5
  6    -10.463698         13.905720         199.44694            0.1184E-04  9.    -5
  7     19.803019         10.374188         517.85904            0.5110E-03 -1.    11
  8    -57.282346         9.5762806         471.88173             0.000      1.   -12
  9     5.8629309        -6.0105352         6.8681205            0.1057      1.   -13
 10     174.30664        -178.69495         1750.2145             0.000     -1.    14
     10    303     12     11      2  20.870510      187.53393     0.77579519E-02 0.11800000    
  1     373.00753             0.000      9.    21
  2    -95.035078             0.000      9.    21
  5    -26.047974        -4.5524620         134.62390            0.2402E-05  9.     5
  6     46.523884        -56.616020         87.503354            0.8461E-06  9.    -5
  7     60.951895         44.857850         16.526916            0.1057     -1.    13
  8    -15.688910         26.172191         8.6274138             0.000      1.   -14
  9    -27.454628        -4.1184971        -26.564364            0.5110E-03  1.   -11
 10    -38.284267        -5.7430625         57.255230             0.000     -1.    12
     11    303     12     11      3  20.870510      211.49816     0.77579519E-02 0.11800000    
  1     365.75441             0.000      9.    21
  2    -123.56033             0.000      9.    21
  5    -12.439164         34.034532        -29.597209            0.2241E-05  9.     5
  6     4.5260873         49.112818         7.2884750            0.1553E-05  9.    -5
  7     4.6240207        -7.5714727         47.980076            0.5110E-03 -1.    11
  8    -111.43159        -15.008838         77.997053             0.000      1.   -12
  9     29.939030        -15.806383        -5.2154056            0.1057      1.   -13
 10     84.781614        -44.760656         143.74109             0.000     -1.    14
     12    303     12     11      4  20.870510      208.76012     0.77579519E-02 0.11800000    
  1     148.81785             0.000      9.    21
  2    -357.24521             0.000      9.    21
  5    -27.187510        -29.708475        -108.28490            0.3081E-05  9.     5
  6     17.589198        -42.061506        -65.228107            0.1656E-05  9.    -5
  7     11.380180         58.800636        -70.620123            0.1057     -1.    13
  8    -59.960872         57.276093        -32.739758             0.000      1.   -14
  9     19.645127        -14.960925        -17.694946            0.1057      1.   -13
 10     38.533876        -29.345823         86.140464             0.000     -1.    14
     13    303     12     12      2  20.870510      213.54134     0.77579519E-02 0.11800000    
  1     302.71766             0.000      9.    21
  2    -165.82200             0.000      9.    21
  5    -106.27043         55.912914         37.928500            0.1473E-05  9.     5
  6     120.48882        -50.078094        -5.1104563            0.1317E-05  9.    -5
  7     33.904407       -0.65006473         20.933671            0.1057     -1.    13
  8    -38.452165        -1.0526763         80.482969             0.000      1.   -14
  9    -4.7574456        -2.0327675        -39.821878            0.5110E-03  1.   -11
 10    -4.9131822        -2.0993109         42.482851             0.000     -1.    12
     14    303     12     12      2  20.870510      228.74443     0.77579519E-02 0.11800000    
  1     616.88039             0.000      9.    21
  2    -85.865360             0.000      9.    21
  5    -1.8686732         36.876043         43.385656            0.2633E-05  9.     5
  6     11.052418         57.765964         19.325294            0.2244E-05  9.    -5
  7     131.94036        -89.320967         206.82565            0.1057     -1.    13
  8    -7.4680134        -30.692684         54.059289             0.000      1.   -14
  9    -25.898422         4.9162409        0.94658125            0.5110E-03  1.   -11
 10    -107.75767         20.455403         206.47255             0.000     -1.    12
     15    303     12      7      3  20.870510      187.04868     0.77579519E-02 0.11800000    
  1     461.01604             0.000      9.    -2
  2    -81.332909             0.000      9.     2
  5     7.8582651         8.1746806        -31.775472            0.2922E-05  9.    -5
  6     19.306567         72.564751         214.61538            0.9119E-06  9.     5
  7     5.2883574        -16.662134        -6.4619850            0.5110E-03 -1.    11
  8    -18.798558        -59.149613         157.93826             0.000      1.   -12
  9    -5.0335530        -1.8165091        -23.159082            0.1057      1.   -13
 10    -8.6210779        -3.1111754         68.526032             0.000     -1.    14
     16    303     12     12      2  20.870510      260.04004     0.77579519E-02 0.11800000    
  1     810.28513             0.000      9.    21
  2    -86.670943             0.000      9.    21
  5     71.917176         13.154302         225.22847            0.3628E-05  9.     5
  6    -144.02277         22.009854         135.16625            0.2476E-05  9.    -5
  7     33.378101        -31.123169         17.124922            0.1057     -1.    13
  8     50.525855        -95.873596         205.86798             0.000      1.   -14
  9    -2.5176073         19.595815        -2.3780032            0.5110E-03  1.   -11
 10    -9.2807514         72.236794         142.60458             0.000     -1.    12
     17    303     12     11      2  20.870510      266.89551     0.77579519E-02 0.11800000    
  1     518.78056             0.000      9.    21
  2    -141.20026             0.000      9.    21
  5    -9.1172287        -35.288202         106.73872            0.4677E-05  9.     5
  6     67.300185         48.411740         141.43242            0.5643E-06  9.    -5
  7    -5.3378986        -57.128288        -22.103575            0.1057     -1.    13
  8    -66.494312        -92.785858         49.373770             0.000      1.   -14
  9     4.4660314         44.757843        -15.654503            0.5110E-03  1.   -11
 10     9.1832222         92.032765         117.79346             0.000     -1.    12
     18    303     12     11      3  20.870510      175.00025     0.77579519E-02 0.11800000    
  1     32.237420             0.000      9.    21
  2    -975.07821             0.000      9.    21
  5    -69.292561         12.311351        -210.55874            0.8596E-05  9.     5
  6    0.74063033         59.520535        -64.748578            0.4694E-05  9.    -5
  7     57.330382        -8.4366793        -103.19787            0.5110E-03 -1.    11
  8    0.75808974        -14.786424        -238.45936             0.000      1.   -12
  9     9.2558101        -42.998563        -330.06108            0.1057      1.   -13
 10     1.2076480        -5.6102196         4.1848362             0.000     -1.    14
     19    303     12     11      1  20.870510      242.47624     0.77579519E-02 0.11800000    
  1     688.60014             0.000      9.    21
  2    -195.95909             0.000      9.    21
  5    -77.169732         22.725514        -17.662673            0.8668E-06  9.     5
  6     82.329258        -40.986265         191.08270            0.6706E-05  9.    -5
  7     52.783643         86.502660        -58.441901            0.5110E-03 -1.    11
  8    -20.568000         53.232183        -9.8095116             0.000      1.   -12
  9    -4.0190581        -13.062454         2.4724625            0.5110E-03  1.   -11
 10    -33.356111        -108.41164         384.99997             0.000     -1.    12
     20    303     12     12      3  20.870510      263.58864     0.77579519E-02 0.11800000    
  1     234.69302             0.000      9.    21
  2    -361.33277             0.000      9.    21
  5     55.571784        -8.4349328        -10.779622            0.1732E-05  9.     5
  6    -6.3971910         12.895137        -74.330124            0.2686E-05  9.    -5
  7     64.316902         106.32243         49.542104            0.5110E-03 -1.    11
  8    -20.915721         73.293200         24.597502             0.000      1.   -12
  9    -62.589626        -124.45197        -117.81340            0.1057      1.   -13
 10    -29.986148        -59.623862         2.1437942             0.000     -1.    14
     21    303     12      7      4  20.870510      202.97087     0.77579519E-02 0.11800000    
  1     19.984982             0.000      9.    -2
  2    -2304.5997             0.000      9.     2
  5     44.163434        -9.0790230        -275.51846            0.9712E-05  9.    -5
  6     43.793483        -18.772833        -788.27967            0.8982E-05  9.     5
  7    -37.476225        -54.548990        -364.64234            0.1057     -1.    13
  8    -62.448396        -24.163636        -124.58028             0.000      1.   -14
  9     11.303643         100.65146        -730.63421            0.1057      1.   -13
 10    0.66406105         5.9130242       -0.95974209             0.000     -1.    14
     22    303     12     11      3  20.870510      179.53848     0.77579519E-02 0.11800000    
  1     531.61880             0.000      9.    21
  2    -146.20932             0.000      9.    21
  5    -51.187910        -17.658146        -23.475052            0.4495E-05  9.     5
  6     25.423589        -16.018729         306.06162            0.1619E-05  9.    -5
  7     103.34523         24.697635        -48.222650            0.5110E-03 -1.    11
  8    -12.101447         8.7434409         5.1177689             0.000      1.   -12
  9    -14.275269        0.51406780E-01    -8.1548432            0.1057      1.   -13
 10    -51.204197        0.18439183         154.08263             0.000     -1.    14
     23    303     12     11      1  20.870510      175.58824     0.77579519E-02 0.11800000    
  1     30.177828             0.000      9.    21
  2    -1380.8486             0.000      9.    21
  5    -41.799491         47.243209        -531.89635            0.7225E-05  9.     5
  6    -39.590251        -38.332773        -53.726656            0.3551E-05  9.    -5
  7     33.358444        -13.332419        -76.092951            0.5110E-03 -1.    11
  8    -4.7648020        -50.534373        -427.17693             0.000      1.   -12
  9     45.382330         47.239237        -264.96689            0.5110E-03  1.   -11
 10     7.4137698         7.7171186         3.1890257             0.000     -1.    12
     24    303     12     11      1  20.870510      187.96918     0.77579519E-02 0.11800000    
  1     720.79382             0.000      9.    21
  2    -55.051626             0.000      9.    21
  5     46.556163         80.131558         102.33631            0.3416E-05  9.     5
  6    -13.943954        -66.649112         89.250532            0.3190E-05  9.    -5
  7     40.049750        -33.835211         98.332810            0.5110E-03 -1.    11
  8    -23.458523        -15.242725         3.7850131             0.000      1.   -12
  9    -5.0540055         3.6562449        -2.9709719            0.5110E-03  1.   -11
 10    -44.149430         31.939246         375.00850             0.000     -1.    12
     25    303     12     12      4  20.870510      182.10822     0.77579519E-02 0.11800000    
  1     114.15266             0.000      9.    21
  2    -298.40578             0.000      9.    21
  5    -73.213347         23.804301        -51.247559            0.4801E-06  9.     5
  6    -1.1139772        -76.725941        -11.606320            0.1501E-05  9.    -5
  7     52.159057         14.565380        -38.283741            0.1057     -1.    13
  8   -0.15409356         9.9326891         30.942071             0.000      1.   -14
  9     16.865950         21.475799        -125.92733            0.1057      1.   -13
 10     5.4564111         6.9477729         11.869764             0.000     -1.    14
     26    303     12      7      4  20.870510      208.15659     0.77579519E-02 0.11800000    
  1     444.83520             0.000      9.    -2
  2    -122.92496             0.000      9.     2
  5     97.753449        -55.842348         52.785636            0.7845E-06  9.    -5
  6    -76.718321         9.8279417         208.01394            0.2392E-05  9.     5
  7     31.438003        -10.302590        -20.423059            0.1057     -1.    13
  8    -45.921210        -11.409821       -0.75406441             0.000      1.   -14
  9    -2.0414842         21.102702        -15.899549            0.1057      1.   -13
 10    -4.5104363         46.624115         98.187336             0.000     -1.    14
     27    303     12     11      3  20.870510      309.88574     0.77579519E-02 0.11800000    
  1     171.98972             0.000      9.    21
  2    -694.26285             0.000      9.    21
  5    -185.78431        -43.130227        -365.46203            0.8972E-05  9.     5
  6     16.609232        -35.389645         16.939177            0.2534E-05  9.    -5
  7     12.092429        0.48435056         6.4289573            0.5110E-03 -1.    11
  8    -79.196724         1.4629413        -93.747319             0.000      1.   -12
  9     146.87979         47.600281        -93.886221            0.1057      1.   -13
 10     89.399583         28.972299         7.4543025             0.000     -1.    14
     28    303     12     11      3  20.870510      176.09597     0.77579519E-02 0.11800000    
  1     243.79503             0.000      9.    21
  2    -260.46049             0.000      9.    21
  5    -15.851246         20.296239         17.745477            0.3654E-05  9.     5
  6    -5.0359828        -59.882045         75.477007            0.1067E-05  9.    -5
  7     55.489197        -29.265352        -167.73624            0.5110E-03 -1.    11
  8    -25.395243        -11.681452        -38.688050             0.000      1.   -12
  9    -2.6747557         23.396489        -12.319187            0.1057      1.   -13
 10    -6.5319701         57.136121         108.85553             0.000     -1.    14
     29    303     12     11      4  20.870510      203.70550     0.77579519E-02 0.11800000    
  1     68.538735             0.000      9.    21
  2    -764.92988             0.000      9.    21
  5    -10.515831         66.233173        -115.08090            0.6312E-05  9.     5
  6     44.677468         52.795195        -93.148709            0.9920E-06  9.    -5
  7     14.287236        -5.5738270        -29.343633            0.1057     -1.    13
  8    -105.77183        -33.988145        -394.06203             0.000      1.   -14
  9     37.058253        -51.373588        -81.521379            0.1057      1.   -13
 10     20.264700        -28.092808         16.765506             0.000     -1.    14
     30    303     12      7      1  20.870510      229.57062     0.77579519E-02 0.11800000    
  1     69.287737             0.000      9.    -2
  2    -791.46493             0.000      9.     2
  5    -87.691011         34.372901        -39.682723            0.2563E-05  9.    -5
  6     132.84681        -49.194776        -307.01034            0.3364E-05  9.     5
  7     23.798413         20.331091        -101.68139            0.5110E-03 -1.    11
  8    -61.551421         26.450045        -134.78306             0.000      1.   -12
  9    -5.8177849        -25.116482        -149.05907            0.5110E-03  1.   -11
 10    -1.5850076        -6.8427788         10.039389             0.000     -1.    12
     31    303     12     12      2  20.870510      195.72048     0.77579519E-02 0.11800000    
  1     834.19876             0.000      9.    21
  2    -148.95829             0.000      9.    21
  5     15.243827        -63.774122         297.48291            0.7795E-05  9.     5
  6     18.143992        -62.469019        0.11255582E-01        0.1742E-05  9.    -5
  7    -74.346108         26.018210         433.90398            0.1057     -1.    13
  8    -23.198636         3.8063421         20.079224             0.000      1.   -14
  9     43.325247         65.111586        -68.406123            0.5110E-03  1.   -11
 10     20.831678         31.307003         2.1692190             0.000     -1.    12
     32    303     12     11      4  20.870510      197.18578     0.77579519E-02 0.11800000    
  1     529.68479             0.000      9.    21
  2    -73.406648             0.000      9.    21
  5     54.629175        -31.939255         29.388705            0.1657E-05  9.     5
  6     42.589315         69.193332         43.984782            0.1610E-05  9.    -5
  7     2.1340135        -41.569036         179.15720            0.1057     -1.    13
  8    -39.892521        -17.140051         18.994966             0.000      1.   -14
  9    -10.511523         3.7928843        -5.4361501            0.1057      1.   -13
 10    -48.948460         17.662126         190.18864             0.000     -1.    14
     33    303     12     11      4  20.870510      307.85526     0.77579519E-02 0.11800000    
  1     1550.4834             0.000      9.    21
  2    -193.90110             0.000      9.    21
  5    -121.78879         30.747692        -38.950129            0.1086E-04  9.     5
  6     170.42737        -9.7225958         717.23652            0.1394E-04  9.    -5
  7    -36.953064        -44.158092         35.769188            0.1057     -1.    13
  8    -83.512048        -62.137040        -40.267269             0.000      1.   -14
  9     4.2361644         5.0290310         1.3231491            0.1057      1.   -13
 10     67.590375         80.241005         681.47088             0.000     -1.    14
     34    303     12     12      4  20.870510      190.93865     0.77579519E-02 0.11800000    
  1     193.18201             0.000      9.    21
  2    -198.50690             0.000      9.    21
  5    -63.570403         74.989859        -9.7336813            0.2041E-05  9.     5
  6     28.759066         45.151728        -45.359256            0.2048E-05  9.    -5
  7     37.448057        -12.450917         10.276600            0.1057     -1.    13
  8    -35.494051        -14.784381         40.277296             0.000      1.   -14
  9     16.491606        -46.631115        -39.866772            0.1057      1.   -13
 10     16.365724        -46.275175         39.080924             0.000     -1.    14
     35    303     12     12      4  20.870510      245.22372     0.77579519E-02 0.11800000    
  1     438.39105             0.000      9.    21
  2    -381.55674             0.000      9.    21
  5    -97.253240        -75.061999         246.83814            0.6184E-05  9.     5
  6    -14.690410         71.910668        -30.178474            0.1664E-05  9.    -5
  7     23.068489        -56.174706         118.60208            0.1057     -1.    13
  8    -7.4613796        -20.710959        -8.9169709             0.000      1.   -14
  9     81.603492         67.796688        -268.49117            0.1057      1.   -13
 10     14.733049         12.240308        -1.0192920             0.000     -1.    14
     36    303     12     11      3  20.870510      185.81175     0.77579519E-02 0.11800000    
  1     67.759131             0.000      9.    21
  2    -528.87064             0.000      9.    21
  5     83.901035         9.7211253        -70.881378            0.3941E-05  9.     5
  6     19.389769        0.84372473E-01    -128.42813            0.1626E-05  9.    -5
  7     30.672849        -4.7584072        -106.39704            0.5110E-03 -1.    11
  8    -50.188328        -5.0882401        -110.30954             0.000      1.   -12
  9    -51.127880        0.25113433E-01    -67.558560            0.1057      1.   -13
 10    -32.647444        0.16036053E-01     22.463145             0.000     -1.    14
     37    303     12     12      4  20.870510      251.64695     0.77579519E-02 0.11800000    
  1     123.31493             0.000      9.    21
  2    -1082.9706             0.000      9.    21
  5    -111.67652        -41.055284        -75.539878            0.7392E-05  9.     5
  6     90.001999        -18.988661        -638.26411            0.5927E-05  9.    -5
  7    -2.2508531         16.238353        -16.656710            0.1057     -1.    13
  8    -67.263197         35.572078         49.724821             0.000      1.   -14
  9     77.924269         7.0358660        -281.91475            0.1057      1.   -13
 10     13.264303         1.1976482         2.9949032             0.000     -1.    14
     38    303     12     11      4  20.870510      184.39037     0.77579519E-02 0.11800000    
  1     117.16497             0.000      9.    21
  2    -488.52076             0.000      9.    21
  5     42.633905         65.364969        -153.73603            0.6130E-05  9.     5
  6     11.223282         58.544427        -9.2672473            0.1790E-05  9.    -5
  7     42.964521        -49.714614        -196.51742            0.1057     -1.    13
  8    -25.443383        -16.480046        -28.387268             0.000      1.   -14
  9    -32.824792        -26.541310        -33.399392            0.1057      1.   -13
 10    -38.553533        -31.173427         49.951564             0.000     -1.    14
     39    303     12      8      4  20.870510      202.49200     0.77579519E-02 0.11800000    
  1     708.47688             0.000      9.    -3
  2    -58.500425             0.000      9.     3
  5    -32.860870        -70.478653         118.24998            0.1472E-05  9.    -5
  6     112.56372        -15.155571         267.51752            0.1369E-05  9.     5
  7     17.073151         19.662667         39.272958            0.1057     -1.    13
  8    -87.139068         45.468530         127.80969             0.000      1.   -14
  9    -2.5268817         5.3760598        -13.412412            0.1057      1.   -13
 10    -7.1100508         15.126968         110.53872             0.000     -1.    14
     40    303     12     11      3  20.870510      211.85850     0.77579519E-02 0.11800000    
  1     680.84345             0.000      9.    21
  2    -105.63847             0.000      9.    21
  5    -33.172930        -9.3643904         163.43162            0.4889E-05  9.     5
  6    -15.776429         52.591334         70.127601            0.2673E-06  9.    -5
  7     143.67266        -26.089897         271.89546            0.5110E-03 -1.    11
  8     1.0154051        -10.019977         93.388759             0.000      1.   -12
  9    -53.287051        -3.9612784        -53.672817            0.1057      1.   -13
 10    -42.451651        -3.1557912         30.034357             0.000     -1.    14
     41    303     12     12      3  20.870510      209.94312     0.77579519E-02 0.11800000    
  1     762.32548             0.000      9.    21
  2    -86.468356             0.000      9.    21
  5     63.779522        -15.639592         132.16171            0.7469E-05  9.     5
  6     16.110605         23.792098        -13.737841            0.1895E-05  9.    -5
  7     47.087400         78.567799         374.15003            0.5110E-03 -1.    11
  8    -32.741175         24.203829         75.908579             0.000      1.   -12
  9    -28.962633        -34.091461        -7.3158435            0.1057      1.   -13
 10    -65.273720        -76.832672         114.69049             0.000     -1.    14
     42    303     12     12      4  20.870510      306.37440     0.77579519E-02 0.11800000    
  1     537.44883             0.000      9.    21
  2    -180.92403             0.000      9.    21
  5     7.7566367        -25.923636         75.259181            0.5332E-05  9.     5
  6    -1.6784649        -43.468331         27.817598            0.4361E-05  9.    -5
  7     237.29794         50.050087         177.46729            0.1057     -1.    13
  8     4.8817160         7.7581526        -7.5748714             0.000      1.   -14
  9    -94.923117         4.4291189        -8.4344997            0.1057      1.   -13
 10    -153.33471         7.1546079         91.990102             0.000     -1.    14
     43    303     12     11      2  20.870510      177.12684     0.77579519E-02 0.11800000    
  1     102.44818             0.000      9.    21
  2    -608.65868             0.000      9.    21
  5    -61.884381        -11.650843        -256.82299            0.1883E-05  9.     5
  6    -43.805836         35.561998         16.836993            0.1330E-05  9.    -5
  7     67.199948         34.468394        -239.68757            0.1057     -1.    13
  8    -15.143018         7.1298592        -7.2177142             0.000      1.   -14
  9     29.426059        -35.941928        -50.739014            0.5110E-03  1.   -11
 10     24.207227        -29.567480         31.419801             0.000     -1.    12
     44    303     12     11      2  20.870510      206.23268     0.77579519E-02 0.11800000    
  1     481.39909             0.000      9.    21
  2    -139.54311             0.000      9.    21
  5    -64.219658        -28.448828         29.324805            0.2474E-05  9.     5
  6    -14.888806         24.077355         143.95280            0.4689E-05  9.    -5
  7     23.439640         33.849978         2.5166260            0.1057     -1.    13
  8    -52.102982         53.963618        -48.962009             0.000      1.   -14
  9     20.659773        -15.995792        0.50297100            0.5110E-03  1.   -11
 10     87.112032        -67.446332         214.52078             0.000     -1.    12
     45    303     12     11      1  20.870510      175.19337     0.77579519E-02 0.11800000    
  1     147.29992             0.000      9.    21
  2    -215.18080             0.000      9.    21
  5     26.187722         65.315335        -43.299119            0.1363E-05  9.     5
  6    -48.997492         15.719619         37.014858            0.7059E-06  9.    -5
  7     12.914145        -24.283312        -33.624998            0.5110E-03 -1.    11
  8    -52.527326        -29.543714         10.736695             0.000      1.   -12
  9     37.516738        -16.352202        -63.161334            0.5110E-03  1.   -11
 10     24.906213        -10.855726         24.453020             0.000     -1.    12
     46    303     12     12      3  20.870510      179.81358     0.77579519E-02 0.11800000    
  1     69.997403             0.000      9.    21
  2    -474.65594             0.000      9.    21
  5     22.996913        -34.281735        -123.91880            0.3001E-05  9.     5
  6     5.7316640        -76.047482        -88.048903            0.1845E-05  9.    -5
  7     38.923042         29.824563         6.3077589            0.5110E-03 -1.    11
  8    -28.218747         33.034447        -40.102926             0.000      1.   -12
  9    -31.293733         37.672123        -166.90582            0.1057      1.   -13
 10    -8.1391393         9.7980851         8.0101536             0.000     -1.    14
     47    303     12     11      3  20.870510      178.21541     0.77579519E-02 0.11800000    
  1     28.100750             0.000      9.    21
  2    -1154.4542             0.000      9.    21
  5     31.591889         36.327654        -270.14908            0.5952E-05  9.     5
  6    -65.302544         34.474759        -211.54603            0.8968E-05  9.    -5
  7     16.293717        -47.750848        -158.58852            0.5110E-03 -1.    11
  8    -41.584623        -25.190182        -48.815572             0.000      1.   -12
  9     53.806343         1.9503079        -439.72702            0.1057      1.   -13
 10     5.1952184        0.18831005         2.4727444             0.000     -1.    14
     48    303     12      2      4  20.870510      189.78040     0.77579519E-02 0.11800000    
  1     1738.6029             0.000      9.     2
  2    -20.960151             0.000      9.    -2
  5    -34.798067         46.435233         636.38197            0.1174E-04  9.     5
  6     106.92418         6.6385018         530.12707            0.3203E-05  9.    -5
  7     22.537433        -10.835925         45.959977            0.1057     -1.    13
  8    -62.786220        -37.618605         271.46533             0.000      1.   -14
  9    -4.1759400       -0.60511737        -4.6147616            0.1057      1.   -13
 10    -27.701388        -4.0140880         238.32315             0.000     -1.    14
     49    303     12     11      4  20.870510      223.67283     0.77579519E-02 0.11800000    
  1     167.17173             0.000      9.    21
  2    -362.05481             0.000      9.    21
  5    -56.812179         36.959512       -0.23911754            0.4265E-05  9.     5
  6     101.82521        -38.088948         1.0595997            0.1837E-05  9.    -5
  7     9.9212582         58.430205        -183.79824            0.1057     -1.    13
  8    -30.909791         21.212568        -23.596343             0.000      1.   -14
  9    -11.293697        -36.908395        -34.564451            0.1057      1.   -13
 10    -12.730806        -41.604942         46.255473             0.000     -1.    14
     50    303     12     11      1  20.870510      198.69780     0.77579519E-02 0.11800000    
  1     849.25231             0.000      9.    21
  2    -51.500104             0.000      9.    21
  5     5.9418220         43.207131         144.91753            0.6272E-05  9.     5
  6    -12.985123        -60.601961         159.86045            0.3779E-05  9.    -5
  7     103.94708        -40.405277         95.844495            0.5110E-03 -1.    11
  8    -15.241280        -14.724668         17.625239             0.000      1.   -12
  9    -8.9089439         7.9120664        0.36621319            0.5110E-03  1.   -11
 10    -72.753559         64.612708         379.13827             0.000     -1.    12
     51    303     12     11      1  20.870510      248.53012     0.77579519E-02 0.11800000    
  1     751.44791             0.000      9.    21
  2    -104.19287             0.000      9.    21
  5     69.856202        -69.862349         130.35372            0.3653E-05  9.     5
  6    -43.728753         105.10091         300.21355            0.6676E-05  9.    -5
  7     92.184770        -17.426793        -17.119543            0.5110E-03 -1.    11
  8    -12.522281        -7.7418550         13.827962             0.000      1.   -12
  9    -17.640883        -1.6791964       -0.62400141            0.5110E-03  1.   -11
 10    -88.149055        -8.3907121         220.60336             0.000     -1.    12
     52    303     12     11      2  20.870510      238.90749     0.77579519E-02 0.11800000    
  1     86.103168             0.000      9.    21
  2    -685.49329             0.000      9.    21
  5     18.000059        -12.323508         11.570856            0.4508E-05  9.     5
  6    -27.792793         23.219973        -153.48318            0.2200E-05  9.    -5
  7     44.172768        -124.32570        -367.95723            0.1057     -1.    13
  8    -9.9131349        -18.157843        -13.367074             0.000      1.   -14
  9    -15.901333         85.520024        -89.651296            0.5110E-03  1.   -11
 10    -8.5655670         46.067051         13.497798             0.000     -1.    12
     53    303     12     12      2  20.870510      343.15535     0.77579519E-02 0.11800000    
  1     930.86909             0.000      9.    21
  2    -180.06805             0.000      9.    21
  5     80.502328        -34.257628         159.59339            0.1058E-04  9.     5
  6    -5.1882743         6.2526025         50.508581            0.3653E-05  9.    -5
  7     77.028833        -90.755708         192.61272            0.1057     -1.    13
  8    -10.480141        -131.40643         326.15856             0.000      1.   -14
  9    -66.843343         117.87457        -30.122770            0.5110E-03  1.   -11
 10    -75.019404         132.29260         52.050565             0.000     -1.    12
     54    303     12     11      4  20.870510      208.33591     0.77579519E-02 0.11800000    
  1     117.18094             0.000      9.    21
  2    -559.27322             0.000      9.    21
  5    -10.214803         107.75720        -318.08142            0.2181E-05  9.     5
  6     17.431369        -65.413435        -72.958511            0.2123E-05  9.    -5
  7     54.941411         2.3885927        -45.353056            0.1057     -1.    13
  8    -24.306639         2.1323777        -54.165367             0.000      1.   -14
  9    -14.068103        -17.418087        -21.279100            0.1057      1.   -13
 10    -23.783235        -29.446646         69.745174             0.000     -1.    14
     55    303     12     12      4  20.870510      305.39284     0.77579519E-02 0.11800000    
  1     146.24565             0.000      9.    21
  2    -657.95140             0.000      9.    21
  5    -59.691720         195.20360        -235.43527            0.4684E-05  9.     5
  6    -42.462765        -148.74011        -121.76063            0.3263E-05  9.    -5
  7     53.193683         35.745366        -81.240972            0.1057     -1.    13
  8    -24.543059         17.889825        -9.6742811             0.000      1.   -14
  9     46.511417        -63.339960        -79.790178            0.1057      1.   -13
 10     26.992444        -36.758723         16.195587             0.000     -1.    14
     56    303     12     12      1  20.870510      275.57452     0.77579519E-02 0.11800000    
  1     3651.3366             0.000      9.    21
  2    -34.091593             0.000      9.    21
  5     104.23525        -60.025153         899.94344            0.1310E-04  9.     5
  6    -107.17819         78.755929         213.90267            0.6205E-05  9.    -5
  7     50.988075        -79.032538         1450.5312            0.5110E-03 -1.    11
  8    -30.881867        -34.435910         608.82069             0.000      1.   -12
  9    -1.5508166         8.5601874       -0.14921089            0.5110E-03  1.   -11
 10    -15.612447         86.177484         444.19628             0.000     -1.    12
     57    303     12     11      4  20.870510      195.87752     0.77579519E-02 0.11800000    
  1     70.511012             0.000      9.    21
  2    -547.83050             0.000      9.    21
  5     8.7964300         108.61431        -109.85791            0.2923E-06  9.     5
  6     59.291450        -36.543440        -38.750942            0.2882E-05  9.    -5
  7     29.755621        -13.568901        -131.50719            0.1057     -1.    13
  8    -30.539066        -6.0324592        -22.663365             0.000      1.   -14
  9    -53.956236        -42.063459        -179.62473            0.1057      1.   -13
 10    -13.348200        -10.406053         5.0846508             0.000     -1.    14
     58    303     12     11      2  20.870510      220.74227     0.77579519E-02 0.11800000    
  1     1020.4190             0.000      9.    21
  2    -56.289859             0.000      9.    21
  5     22.289305         20.809614        -1.1193585            0.3614E-05  9.     5
  6    -32.002159         2.6087472         401.00626            0.7333E-05  9.    -5
  7     68.832369        -75.512866         151.71706            0.1057     -1.    13
  8    -19.249555        -60.105536         121.80224             0.000      1.   -14
  9    -5.5270031         15.553815         1.0820424            0.5110E-03  1.   -11
 10    -34.342957         96.646226         289.64094             0.000     -1.    12
     59    303     12     11      3  20.870510      222.79971     0.77579519E-02 0.11800000    
  1     441.73046             0.000      9.    21
  2    -153.99714             0.000      9.    21
  5     83.150086         72.371031        -58.677617            0.5304E-05  9.     5
  6     19.955005        -70.389864         132.11830            0.7386E-06  9.    -5
  7     45.574127         12.399084         9.6784084            0.5110E-03 -1.    11
  8    -29.885089         12.646768         38.012513             0.000      1.   -12
  9    -26.673151        -6.0684460        -2.9741042            0.1057      1.   -13
 10    -92.120977        -20.958573         169.57583             0.000     -1.    14
     60    303     12      7      4  20.870510      224.28096     0.77579519E-02 0.11800000    
  1     71.993744             0.000      9.    -2
  2    -705.64883             0.000      9.     2
  5     19.815245         102.93901        -89.495178            0.4552E-05  9.    -5
  6     42.936147        -14.559421        -6.0978402            0.2071E-05  9.     5
  7     15.873116         22.498550        -175.89024            0.1057     -1.    13
  8    -50.706813         14.904530        -90.029642             0.000      1.   -14
  9    -23.650555        -106.55715        -270.71121            0.1057      1.   -13
 10    -4.2671394        -19.225520        -1.4309800             0.000     -1.    14
     61    303     12     11      4  20.870510      215.62284     0.77579519E-02 0.11800000    
  1     53.117238             0.000      9.    21
  2    -979.43149             0.000      9.    21
  5    -14.707955         13.105782        -351.71640            0.1037E-04  9.     5
  6    -19.510582        -76.041169        -247.61658            0.2094E-05  9.    -5
  7     67.183269         51.644668        -126.95255            0.1057     -1.    13
  8    -8.3406134         54.265701        -152.83186             0.000      1.   -14
  9    -15.439912        -26.946344        -69.739838            0.1057      1.   -13
 10    -9.1842064        -16.028639         22.542963             0.000     -1.    14
     62    303     12     11      3  20.870510      176.17783     0.77579519E-02 0.11800000    
  1     403.34621             0.000      9.    21
  2    -78.361640             0.000      9.    21
  5     56.982021         18.986728         21.549654            0.2010E-05  9.     5
  6     49.372576         9.8560661         148.86327            0.2521E-05  9.    -5
  7    -15.172429        -2.3887647         87.565656            0.5110E-03 -1.    11
  8    -62.883770        -1.9687098         21.082357             0.000      1.   -12
  9    -10.778750        -9.3263634        -26.153702            0.1057      1.   -13
 10    -17.519648        -15.158957         72.077332             0.000     -1.    14
     63    303     12     12      3  20.870510      174.60744     0.77579519E-02 0.11800000    
  1     277.39500             0.000      9.    21
  2    -149.29436             0.000      9.    21
  5    -51.817764         30.425372         24.726924            0.2488E-05  9.     5
  6    -51.570979         41.904278         2.7939003            0.5999E-06  9.    -5
  7     65.710500        -32.019590         147.90923            0.5110E-03 -1.    11
  8    -13.684562        -8.7606100        0.99546271             0.000      1.   -12
  9     31.959447        -19.630996        -71.941120            0.1057      1.   -13
 10     19.403357        -11.918455         23.616242             0.000     -1.    14
     64    303     12      1      1  20.870510      202.85866     0.77579519E-02 0.11800000    
  1     541.82739             0.000      9.     1
  2    -93.224376             0.000      9.    -1
  5     15.603356         62.626036         72.168642            0.2942E-05  9.     5
  6    -100.86339         34.749556         182.23606            0.2193E-05  9.    -5
  7     97.579794        -28.984383         1.0563436            0.5110E-03 -1.    11
  8    -11.551307        -12.615182         14.392050             0.000      1.   -12
  9   -0.13989046        -10.153505        -6.5475534            0.5110E-03  1.   -11
 10   -0.62856674        -45.622522         185.29748             0.000     -1.    12
     65    303     12      7      2  20.870510      329.11780     0.77579519E-02 0.11800000    
  1     148.59036             0.000      9.    -2
  2    -830.59729             0.000      9.     2
  5     193.21833         3.5386396        -283.65039            0.5284E-05  9.    -5
  6     18.536219        -7.0213421         2.4514413            0.2835E-05  9.     5
  7     87.074025         66.456712        -203.24009            0.1057     -1.    13
  8    -15.390930         18.125437        -25.365511             0.000      1.   -14
  9    -198.61714        -56.829924        -159.95354            0.5110E-03  1.   -11
 10    -84.820506        -24.269522        -12.248840             0.000     -1.    12
     66    303     12      3      3  20.870510      250.60182     0.77579519E-02 0.11800000    
  1     932.14624             0.000      9.     3
  2    -75.005362             0.000      9.    -3
  5     11.898665         76.720071         410.10581            0.2095E-05  9.     5
  6     67.654360        -104.60849         117.80647            0.2621E-05  9.    -5
  7     29.441765         48.202025         84.626502            0.5110E-03 -1.    11
  8    -52.441866         54.793072         94.478514             0.000      1.   -12
  9    -13.001359        -17.266817        -6.7354933            0.1057      1.   -13
 10    -43.551565        -57.839866         156.85908             0.000     -1.    14
     67    303     12     12      2  20.870510      227.40809     0.77579519E-02 0.11800000    
  1     317.69552             0.000      9.    21
  2    -212.40599             0.000      9.    21
  5     7.5907784         55.453745        -9.8626194            0.4464E-05  9.     5
  6    -25.849836        -39.222046        -75.651221            0.4216E-06  9.    -5
  7     12.484189         13.121105         8.8598831            0.1057     -1.    13
  8    -97.367954         55.359583         181.76273             0.000      1.   -14
  9     51.529081        -42.321427        -34.738924            0.5110E-03  1.   -11
 10     51.613742        -42.390960         34.919678             0.000     -1.    12
     68    303     12     12      3  20.870510      177.20775     0.77579519E-02 0.11800000    
  1     215.54696             0.000      9.    21
  2    -163.94807             0.000      9.    21
  5     47.762335         27.885391         74.632662            0.2434E-05  9.     5
  6     35.490615        -43.102720        -4.8122169            0.1049E-05  9.    -5
  7     35.940363        -20.615233         10.179418            0.5110E-03 -1.    11
  8    -57.310977        -25.313807         4.3123616             0.000      1.   -12
  9    -35.788250         35.362620        -60.783793            0.1057      1.   -13
 10    -26.094087         25.783749         28.070461             0.000     -1.    14
     69    303     12      1      4  20.870510      216.95396     0.77579519E-02 0.11800000    
  1     195.26651             0.000      9.     1
  2    -361.88661             0.000      9.    -1
  5    -21.753466         31.434461        -132.79673            0.4997E-05  9.     5
  6     32.330333        -8.6194417         46.213773            0.3990E-06  9.    -5
  7     96.676470         31.205895        -38.190888            0.1057     -1.    13
  8     19.794356         25.206971        -73.297014             0.000      1.   -14
  9    -55.687683        -34.727253        -26.999603            0.1057      1.   -13
 10    -71.360011        -44.500633         58.450367             0.000     -1.    14
     70    303     12     12      2  20.870510      185.82746     0.77579519E-02 0.11800000    
  1     1575.5061             0.000      9.    21
  2    -56.679750             0.000      9.    21
  5    -42.394514        -49.324794         920.67230            0.1873E-04  9.     5
  6     10.795728        -22.426471         95.845488            0.1754E-05  9.    -5
  7     73.121801        -11.729728         439.25218            0.1057     -1.    13
  8    -17.426784        -1.9887152         38.600531             0.000      1.   -14
  9    -10.595725         37.583202        -29.509028            0.5110E-03  1.   -11
 10    -13.500506         47.886507         53.964883             0.000     -1.    12
     71    303     12      7      3  20.870510      212.29749     0.77579519E-02 0.11800000    
  1     30.151891             0.000      9.    -2
  2    -1584.0705             0.000      9.     2
  5     8.1390459         93.654477        -222.27196            0.7764E-05  9.    -5
  6    -11.787774        -47.781828        -581.24628            0.6036E-05  9.     5
  7    -15.380956       -0.46881526        -231.22033            0.5110E-03 -1.    11
  8    -70.648701       -0.32670741        -131.83566             0.000      1.   -12
  9     80.336793        -40.381546        -387.50608            0.1057      1.   -13
 10     9.3415924        -4.6955812        0.16168232             0.000     -1.    14
     72    303     12     11      3  20.870510      231.10045     0.77579519E-02 0.11800000    
  1     389.38110             0.000      9.    21
  2    -141.23921             0.000      9.    21
  5    -61.617349        -103.91843         42.528578            0.3017E-05  9.     5
  6     59.837675         119.16150         55.238543            0.1302E-05  9.    -5
  7     17.711338        0.65506034         5.0276712            0.5110E-03 -1.    11
  8    -69.126896         2.0186706         121.60436             0.000      1.   -12
  9     23.070541        -7.7704412        -29.276409            0.1057      1.   -13
 10     30.124691        -10.146365         53.019141             0.000     -1.    14
     73    303     12      7      3  20.870510      183.64238     0.77579519E-02 0.11800000    
  1     121.68504             0.000      9.    -2
  2    -303.61449             0.000      9.     2
  5    -9.0568168         12.420070         28.313354            0.2259E-05  9.    -5
  6    -31.815552         33.451660        -7.4268391            0.4495E-06  9.     5
  7    -7.0978790         2.5497502        -163.58073            0.5110E-03 -1.    11
  8    -39.403228         1.0723503        -18.484105             0.000      1.   -12
  9     47.578816        -26.951633        -58.245859            0.1057      1.   -13
 10     39.794660        -22.542198         37.494732             0.000     -1.    14
     74    303     12      2      2  20.870510      247.05183     0.77579519E-02 0.11800000    
  1     579.47331             0.000      9.     2
  2    -136.25579             0.000      9.    -2
  5     50.753187        -71.680905         59.778716            0.2442E-05  9.     5
  6    -7.8339834        -13.178196         173.67406            0.2504E-05  9.    -5
  7     128.13601         24.650887         1.9121130            0.1057     -1.    13
  8    -8.2465654         7.8482654        -10.579375             0.000      1.   -14
  9    -33.403010         10.742549         4.1462653            0.5110E-03  1.   -11
 10    -129.40564         41.617399         214.28575             0.000     -1.    12
     75    303     12      7      2  20.870510      186.89940     0.77579519E-02 0.11800000    
  1     14.551906             0.000      9.    -2
  2    -3464.7934             0.000      9.     2
  5     21.887937        -13.780529        -422.96256            0.5683E-05  9.    -5
  6     61.964342        -16.759731        -2075.6384            0.1437E-04  9.     5
  7    -36.580223         35.453042        -286.96104            0.1057     -1.    13
  8    -43.982712         11.616221        -50.999557             0.000      1.   -14
  9    -3.0870828        -15.512640        -616.22417            0.5110E-03  1.   -11
 10   -0.20226065        -1.0163629         2.5441976             0.000     -1.    12
     76    303     12      6      2  20.870510      683.57227     0.77579519E-02 0.11800000    
  1     1089.7899             0.000      9.    -1
  2    -1138.4375             0.000      9.     1
  5     334.64188        -91.392595         458.84637            0.2065E-04  9.    -5
  6    -132.91566         126.13602        -303.87968            0.1063E-04  9.     5
  7     188.34403        -114.90287         216.17662            0.1057     -1.    13
  8     71.518295        -82.590846         180.28692             0.000      1.   -14
  9    -392.16314         138.27177        -549.71368            0.5110E-03  1.   -11
 10    -69.425411         24.478523        -50.364145             0.000     -1.    12
     77    303     12      6      3  20.870510      209.49898     0.77579519E-02 0.11800000    
  1     343.29093             0.000      9.    -1
  2    -293.44079             0.000      9.     1
  5    -57.729683        -25.836105        -3.8071665            0.4382E-05  9.    -5
  6     88.702252        -31.591562         220.76958            0.1823E-05  9.     5
  7    -3.1919633         27.129922        -154.34090            0.5110E-03 -1.    11
  8    -53.940748         16.481553        -56.084378             0.000      1.   -12
  9     9.9109598         5.2343646        -24.434674            0.1057      1.   -13
 10     16.249183         8.5818274         67.747682             0.000     -1.    14
     78    303     12     12      4  20.870510      185.20971     0.77579519E-02 0.11800000    
  1     36.077436             0.000      9.    21
  2    -950.85148             0.000      9.    21
  5    -39.707541         52.031865        -82.945500            0.6385E-05  9.     5
  6     44.770781         10.065806        -238.83260            0.1715E-05  9.    -5
  7     34.684783         1.4013729        -44.038461            0.1057     -1.    13
  8     26.270838         5.4791206        -333.82114             0.000      1.   -14
  9    -55.043283        -57.510605        -216.97298            0.1057      1.   -13
 10    -10.975577        -11.467559         1.8366393             0.000     -1.    14
     79    303     12     11      4  20.870510      184.27055     0.77579519E-02 0.11800000    
  1     28.858913             0.000      9.    21
  2    -1176.7023             0.000      9.    21
  5     80.383210        -24.598105        -174.76062            0.5734E-05  9.     5
  6    -6.2644297         36.118092        -411.78670            0.8639E-05  9.    -5
  7     26.581474         4.9823714        -255.23310            0.1057     -1.    13
  8    -49.433803         3.3263597        -149.31503             0.000      1.   -14
  9    -40.856585        -15.802414        -164.76831            0.1057      1.   -13
 10    -10.409867        -4.0263038         8.0203646             0.000     -1.    14
     80    303     12     12      1  20.870510      175.31736     0.77579519E-02 0.11800000    
  1     286.68731             0.000      9.    21
  2    -155.06577             0.000      9.    21
  5    -27.665602         17.820693         161.56879            0.3832E-05  9.     5
  6     53.472683        -10.070628         25.758413            0.1569E-05  9.    -5
  7     44.762455        -18.441399         34.231216            0.5110E-03 -1.    11
  8    -29.447146        -13.632591        -7.2871505             0.000      1.   -12
  9    -28.914774         17.103111        -97.772075            0.5110E-03  1.   -11
 10    -12.207616         7.2208139         15.122346             0.000     -1.    12
     81    303     12     11      2  20.870510      207.57785     0.77579519E-02 0.11800000    
  1     152.70367             0.000      9.    21
  2    -349.36289             0.000      9.    21
  5    0.50606533        -4.6947713         23.182740            0.1794E-05  9.     5
  6     122.35731        -11.376135        -4.8885491            0.1362E-05  9.    -5
  7    -61.127590         24.373301        -203.39849            0.1057     -1.    13
  8    -48.322448         9.2918545        -28.204654             0.000      1.   -14
  9    -6.0308043        -7.9105932        -32.658098            0.5110E-03  1.   -11
 10    -7.3825357        -9.6836564         49.307826             0.000     -1.    12
     82    303     12     11      4  20.870510      181.88063     0.77579519E-02 0.11800000    
  1     844.55320             0.000      9.    21
  2    -52.178567             0.000      9.    21
  5     36.866940       -0.77679156E-01     148.49639            0.2707E-05  9.     5
  6    -32.038696         62.339927         470.10658            0.3721E-05  9.    -5
  7     30.316549        -22.779593         24.916878            0.1057     -1.    13
  8    -45.990616        -24.586735        -1.1046610             0.000      1.   -14
  9     2.1795677        -2.9934722        -9.7867990            0.1057      1.   -13
 10     8.6662549        -11.902449         159.74625             0.000     -1.    14
     83    303     12     12      3  20.870510      199.66619     0.77579519E-02 0.11800000    
  1     279.01167             0.000      9.    21
  2    -244.14143             0.000      9.    21
  5    -3.7381427        -56.589124         23.063379            0.4637E-05  9.     5
  6    -100.48937        -20.932957        -43.231989            0.8780E-06  9.    -5
  7     101.46329         25.354457         92.918929            0.5110E-03 -1.    11
  8    -1.5640347         15.770629         69.909915             0.000      1.   -12
  9     3.2309714         27.169693        -120.30742            0.1057      1.   -13
 10     1.0972943         9.2273025         12.517427             0.000     -1.    14
     84    303     12     11      3  20.870510      244.88912     0.77579519E-02 0.11800000    
  1     82.356484             0.000      9.    21
  2    -739.40203             0.000      9.    21
  5    -51.280892        -65.808454        -211.68072            0.2861E-05  9.     5
  6     3.0956810         55.148732        -256.63056            0.2173E-05  9.    -5
  7     22.085711        -61.519279        -74.588541            0.5110E-03 -1.    11
  8    -21.781273        -36.963447         8.3557977             0.000      1.   -12
  9     34.837213         79.410136        -129.27998            0.1057      1.   -13
 10     13.043560         29.732311         6.7784492             0.000     -1.    14
     85    303     12     12      4  20.870510      299.34718     0.77579519E-02 0.11800000    
  1     165.88662             0.000      9.    21
  2    -826.87733             0.000      9.    21
  5    -151.58287        -2.3374965        -302.70613            0.7531E-05  9.     5
  6     123.64547         3.8509808        -62.636707            0.1907E-05  9.    -5
  7     16.482330        -32.088852        -82.303139            0.1057     -1.    13
  8    -82.146542        -75.263891        -237.77128             0.000      1.   -14
  9     42.055056         47.553409        -27.907005            0.1057      1.   -13
 10     51.546559         58.285849         52.333550             0.000     -1.    14
     86    303     12      6      2  20.870510      287.10038     0.77579519E-02 0.11800000    
  1     413.12457             0.000      9.    -1
  2    -261.49358             0.000      9.     1
  5    -15.513199        -10.963790         73.937977            0.3104E-05  9.    -5
  6    -6.0973465        -9.2223337         33.721898            0.1898E-05  9.     5
  7     19.968739         102.68667         72.488487            0.1057     -1.    13
  8    -59.329674         129.71552         93.599434             0.000      1.   -14
  9     41.257350        -143.59948        -122.98331            0.5110E-03  1.   -11
 10     19.714131        -68.616595        0.86650328             0.000     -1.    12
     87    303     12     11      1  20.870510      184.29221     0.77579519E-02 0.11800000    
  1     85.446811             0.000      9.    21
  2    -416.45534             0.000      9.    21
  5     30.809462         52.790760        -109.64786            0.2390E-05  9.     5
  6     45.619050         7.7911627        -5.6252175            0.6656E-06  9.    -5
  7     14.169505         2.3658417         23.751274            0.5110E-03 -1.    11
  8    -56.518994         3.5797166        -26.044033             0.000      1.   -12
  9    -28.441809        -55.522775        -217.79121            0.5110E-03  1.   -11
 10    -5.6372137        -11.004706         4.3485191             0.000     -1.    12
     88    303     12     11      4  20.870510      176.87037     0.77579519E-02 0.11800000    
  1     127.11239             0.000      9.    21
  2    -670.20746             0.000      9.    21
  5    -54.327224        -35.333642        -125.90659            0.4313E-05  9.     5
  6    -56.747345        -6.4866410        -17.602293            0.4532E-06  9.    -5
  7     32.804420        0.97471117        -49.993758            0.1057     -1.    13
  8     19.576251         4.3781131        -412.77389             0.000      1.   -14
  9     20.188813         12.543633        -18.057689            0.1057      1.   -13
 10     38.505084         23.923826         81.239138             0.000     -1.    14
     89    303     12     12      4  20.870510      231.75884     0.77579519E-02 0.11800000    
  1     171.33878             0.000      9.    21
  2    -544.64894             0.000      9.    21
  5    -75.809567        -69.503946        -352.30687            0.2882E-05  9.     5
  6     37.069532        -12.497743        -29.916121            0.1885E-05  9.    -5
  7     31.755294        -30.022743        -23.786467            0.1057     -1.    13
  8    -28.529945        -34.872708        -43.787857             0.000      1.   -14
  9     12.665151         52.386058        -12.512049            0.1057      1.   -13
 10     22.849535         94.511082         88.999213             0.000     -1.    14
     90    303     12     12      4  20.870510      249.08622     0.77579519E-02 0.11800000    
  1     148.78793             0.000      9.    21
  2    -654.04092             0.000      9.    21
  5     16.463270         86.881970         62.567406            0.5521E-05  9.     5
  6    -5.4766718        -149.22546        -391.34123            0.4173E-05  9.    -5
  7     33.539054         56.212359        -74.235350            0.1057     -1.    13
  8    -25.776052         33.191074        0.70213178             0.000      1.   -14
  9    -13.865214        -20.010659        -116.27082            0.1057      1.   -13
 10    -4.8843859        -7.0492802         13.324875             0.000     -1.    14
     91    303     12     11      2  20.870510      181.85446     0.77579519E-02 0.11800000    
  1     213.40209             0.000      9.    21
  2    -251.68672             0.000      9.    21
  5    -24.425627         64.279928        -30.632361            0.1422E-05  9.     5
  6     43.903471         17.594960         6.0789219            0.1156E-05  9.    -5
  7     74.865881        -15.885491        -69.312989            0.1057     -1.    13
  8    -13.728576        -11.750094        -63.350468             0.000      1.   -14
  9    -21.330770        -14.351721        -8.3436605            0.5110E-03  1.   -11
 10    -59.284378        -39.887582         127.27593             0.000     -1.    12
     92    303     12      6      1  20.870510      419.34402     0.77579519E-02 0.11800000    
  1     507.26819             0.000      9.    -1
  2    -381.15545             0.000      9.     1
  5    -6.6662154         111.15783         18.374210            0.4066E-05  9.    -5
  6     11.190830        -130.93070         3.3901948            0.1865E-05  9.     5
  7    -4.6003417         38.718976         12.952997            0.5110E-03 -1.    11
  8    -200.93434         167.04542         165.36478             0.000      1.   -12
  9     120.58514        -111.57558        -82.594920            0.5110E-03  1.   -11
 10     80.424926        -74.415948         8.6254749             0.000     -1.    12
     93    303     12     12      4  20.870510      201.93125     0.77579519E-02 0.11800000    
  1     363.76590             0.000      9.    21
  2    -190.02893             0.000      9.    21
  5    -97.143146        -44.971867         159.23421            0.4501E-05  9.     5
  6     109.82027        -11.476188        -18.144760            0.2397E-05  9.    -5
  7     35.971882         24.508486         75.754700            0.1057     -1.    13
  8    -40.759270         18.033564         29.205875             0.000      1.   -14
  9    -5.4475063         9.6014710        -90.166885            0.1057      1.   -13
 10    -2.4422269         4.3045330         17.853828             0.000     -1.    14
     94    303     12     11      4  20.870510      188.62134     0.77579519E-02 0.11800000    
  1     298.85261             0.000      9.    21
  2    -120.44209             0.000      9.    21
  5    -51.993812         60.379798         4.9682646            0.1111E-05  9.     5
  6    -42.075076        -76.715753         99.874206            0.5606E-06  9.    -5
  7     79.895276         7.0707350         35.275373            0.1057     -1.    13
  8    -18.666020         4.0492860         26.411961             0.000      1.   -14
  9     15.240310         2.4206254        -33.948170            0.1057      1.   -13
 10     17.599321         2.7953082         45.828886             0.000     -1.    14
     95    303     12     11      1  20.870510      221.64159     0.77579519E-02 0.11800000    
  1     2205.1203             0.000      9.    21
  2    -31.671068             0.000      9.    21
  5     40.604865         2.6167093         222.19845            0.1215E-04  9.     5
  6     13.182239        -1.2758928         9.8022199            0.3231E-05  9.    -5
  7     28.400031        -75.958969         149.67415            0.5110E-03 -1.    11
  8    -45.230943        -61.488389         105.77118             0.000      1.   -12
  9   -0.90771805         3.3430491         1.7348078            0.5110E-03  1.   -11
 10    -36.048474         132.76349         1684.2684             0.000     -1.    12
     96    303     12     12      3  20.870510      202.61390     0.77579519E-02 0.11800000    
  1     127.41846             0.000      9.    21
  2    -329.91555             0.000      9.    21
  5     39.773680         112.72445        -43.702752            0.7649E-06  9.     5
  6    -37.568048        -109.63722        -105.14800            0.1207E-05  9.    -5
  7     17.414136        -6.2008809        -42.062955            0.5110E-03 -1.    11
  8    -34.375686        -5.7688729         19.518926             0.000      1.   -12
  9     8.7452794         5.2643395        -58.506986            0.1057      1.   -13
 10     6.0106384         3.6181853         27.404673             0.000     -1.    14
     97    303     12     11      3  20.870510      177.98449     0.77579519E-02 0.11800000    
  1     37.612190             0.000      9.    21
  2    -955.03490             0.000      9.    21
  5    -18.335838         45.856420        -197.60612            0.8082E-06  9.     5
  6     43.528917         30.170743        -299.51884            0.5618E-05  9.    -5
  7     70.800416        -32.696764        -78.376414            0.5110E-03 -1.    11
  8    -16.437615        -13.372824        -12.159625             0.000      1.   -12
  9    -70.300993        -26.472554        -331.37361            0.1057      1.   -13
 10    -9.2548873        -3.4850219         1.6118947             0.000     -1.    14
     98    303     12     11      4  20.870510      189.28286     0.77579519E-02 0.11800000    
  1     606.81641             0.000      9.    21
  2    -115.28879             0.000      9.    21
  5    -26.460074         93.428632        -2.8706875            0.2320E-05  9.     5
  6    -71.077140        -53.113804         230.47171            0.3912E-05  9.    -5
  7     41.221670        -11.500678        -37.527680            0.1057     -1.    13
  8    -3.6620683        -8.9600845         33.974655             0.000      1.   -14
  9     7.9498293        -2.6315891        -3.6519686            0.1057      1.   -13
 10     52.027783        -17.222476         271.13159             0.000     -1.    14
     99    303     12      7      1  20.870510      242.04499     0.77579519E-02 0.11800000    
  1     101.38279             0.000      9.    -2
  2    -1990.4132             0.000      9.     2
  5     29.987664       -0.64018530        -257.97422            0.7672E-05  9.    -5
  6     12.542702        -22.146622         44.104142            0.9554E-06  9.     5
  7    -64.622165         37.557163        -889.35849            0.5110E-03 -1.    11
  8    -119.67202         29.376176        -678.26996             0.000      1.   -12
  9     98.352439        -30.627837        -113.68656            0.5110E-03  1.   -11
 10     43.411380        -13.518695         6.1546868             0.000     -1.    12
    100    303     12     11      1  20.870510      201.89764     0.77579519E-02 0.11800000    
  1     765.02688             0.000      9.    21
  2    -53.347406             0.000      9.    21
  5     37.692136         17.063927         14.249352            0.5432E-05  9.     5
  6     72.732211        -35.999509         157.49158            0.1706E-05  9.    -5
  7    -9.3987045         62.720525         294.92438            0.5110E-03 -1.    11
  8    -40.387677         21.388145         60.922713             0.000      1.   -12
  9    -11.697379        -12.572228        -4.5440239            0.5110E-03  1.   -11
 10    -48.940586        -52.600860         188.63548             0.000     -1.    12
